<?xml version="1.0" standalone="no"?>
<!DOCTYPE svg PUBLIC "-//W3C//DTD SVG 1.1//EN" "http://www.w3.org/Graphics/SVG/1.1/DTD/svg11.dtd" >
<svg xmlns="http://www.w3.org/2000/svg">
<metadata>Generated by IcoMoon</metadata>
<defs>
<font id="Responsive-ui" horiz-adv-x="1024">
<font-face units-per-em="1024" ascent="960" descent="-64" />
<missing-glyph horiz-adv-x="1024" />
<glyph unicode="&#x20;" horiz-adv-x="512" d="" />
<glyph unicode="&#xe900;" glyph-name="download" d="M768 614.4h-153.6v307.2h-204.8v-307.2h-153.6l256-256 256 256zM990.106 279.962c-10.752 11.469-82.483 88.218-102.963 108.237-13.568 13.261-32.973 21.402-53.35 21.402h-89.958l156.877-153.293h-181.453c-5.222 0-9.933-2.662-12.288-6.81l-41.779-95.898h-306.381l-41.779 95.898c-2.355 4.147-7.117 6.81-12.288 6.81h-181.453l156.826 153.293h-89.907c-20.326 0-39.731-8.141-53.35-21.402-20.48-20.070-92.211-96.819-102.963-108.237-25.037-26.675-38.81-47.923-32.256-74.189l28.723-157.389c6.554-26.317 35.379-47.923 64.102-47.923h835.174c28.723 0 57.549 21.606 64.102 47.923l28.723 157.389c6.451 26.266-7.27 47.514-32.358 74.189z" />
<glyph unicode="&#xe901;" glyph-name="upload" d="M409.6 358.4h204.8v307.2h153.6l-256 256-256-256h153.6v-307.2zM990.106 279.962c-10.752 11.469-82.483 88.218-102.963 108.237-13.568 13.261-32.973 21.402-53.35 21.402h-89.958l156.877-153.293h-181.453c-5.222 0-9.933-2.662-12.288-6.81l-41.779-95.898h-306.381l-41.779 95.898c-2.355 4.147-7.117 6.81-12.288 6.81h-181.453l156.826 153.293h-89.907c-20.326 0-39.731-8.141-53.35-21.402-20.48-20.070-92.211-96.819-102.963-108.237-25.037-26.675-38.81-47.923-32.256-74.189l28.723-157.389c6.554-26.317 35.379-47.923 64.102-47.923h835.174c28.723 0 57.549 21.606 64.102 47.923l28.723 157.389c6.451 26.266-7.27 47.514-32.358 74.189z" />
<glyph unicode="&#xe902;" glyph-name="laptop" d="M1011.405 172.493c-12.646 18.995-89.805 134.707-89.805 134.707v460.8c0 56.422-46.080 102.4-102.4 102.4h-614.4c-56.371 0-102.4-45.978-102.4-102.4v-460.8c0 0-77.158-115.712-89.805-134.707-12.595-18.893-12.595-29.798-12.595-44.493v-25.6c0-25.6 25.6-51.2 51.149-51.2h921.702c25.549 0 51.149 25.6 51.149 51.2v25.6c0 14.694 0 25.6-12.595 44.493zM358.4 153.6l30.72 51.2h245.76l30.72-51.2h-307.2zM819.2 358.4h-614.4v409.6h614.4v-409.6z" />
<glyph unicode="&#xe903;" glyph-name="mobile" d="M717.005 972.8h-410.010c-56.422 0-102.195-45.773-102.195-102.195v-819.558c0-56.474 45.773-102.246 102.195-102.246h409.958c56.474 0 102.246 45.773 102.246 102.195v819.61c0 56.422-45.773 102.195-102.195 102.195zM512 0c-35.328 0-64 22.886-64 51.2s28.672 51.2 64 51.2 64-22.886 64-51.2-28.672-51.2-64-51.2zM716.8 153.6h-409.6v716.8h409.6v-716.8z" />
<glyph unicode="&#xe904;" glyph-name="phone" d="M883.507 345.446c-4.915 34.15-31.283 60.774-65.229 68.71-131.942 30.925-165.018 106.906-170.598 191.181-23.398 4.352-65.024 9.062-135.68 9.062s-112.282-4.71-135.68-9.062c-5.581-84.275-38.656-160.256-170.598-191.181-33.946-7.987-60.314-34.56-65.229-68.71l-25.446-176.23c-8.96-62.054 36.608-118.016 99.994-118.016h593.92c63.334 0 108.954 55.962 99.994 118.016l-25.446 176.23zM512 179.61c-71.424 0-129.331 57.344-129.331 128s57.907 128 129.331 128 129.331-57.344 129.331-128-57.958-128-129.331-128zM1021.44 665.6c-1.229 76.8-196.71 204.749-509.44 204.8-312.781-0.051-508.262-128-509.44-204.8s1.075-176.742 129.792-160.102c150.579 19.507 141.312 72.090 141.312 147.251 0 52.429 122.47 65.075 238.336 65.075s238.285-12.646 238.336-65.075c0-75.162-9.267-127.744 141.312-147.251 128.666-16.64 130.97 83.302 129.792 160.102z" />
<glyph unicode="&#xe905;" glyph-name="thumbs-down" d="M325.222 325.734c6.81-18.227-181.197-186.061-71.526-322.099 25.651-31.795 112.691 152.32 236.288 235.622 68.147 46.029 226.816 143.923 226.816 198.042v350.31c0 65.075-251.597 133.99-442.778 133.99-70.093 0-171.622-439.091-171.622-508.877 0-69.99 216.115-68.762 222.822-86.989zM768 330.598c33.69 0 153.6 20.48 153.6 159.898v248.218c0 139.315-119.91 154.675-153.6 154.675-33.638 0 51.2-29.286 51.2-115.712v-326.298c0-90.522-84.838-120.781-51.2-120.781z" />
<glyph unicode="&#xe906;" glyph-name="thumbs-up" d="M698.778 595.866c-6.81 18.176 181.197 186.061 71.578 322.099-25.651 31.795-112.691-152.32-236.288-235.674-68.198-45.978-226.867-143.872-226.867-197.99v-350.31c0-65.075 251.597-133.99 442.778-133.99 70.093 0 171.622 439.091 171.622 508.826 0 70.042-216.115 68.813-222.822 87.040zM256 591.002c-33.69 0-153.6-20.48-153.6-159.898v-248.218c0-139.315 119.91-154.675 153.6-154.675 33.638 0-51.2 29.286-51.2 115.712v326.298c0 90.522 84.838 120.781 51.2 120.781z" />
<glyph unicode="&#xe907;" glyph-name="tv" d="M921.6 921.6h-819.2c-56.371 0-102.4-46.080-102.4-102.4v-563.2c0-56.32 45.158-111.514 100.403-122.522l223.846-44.8c0 0-192.666-88.678-68.25-88.678h512c124.416 0-68.301 88.678-68.301 88.678l223.898 44.8c55.194 11.008 100.403 66.202 100.403 122.522v563.2c0 56.32-46.080 102.4-102.4 102.4zM921.6 256h-819.2v563.2h819.2v-563.2z" />
<glyph unicode="&#xe908;" glyph-name="music" d="M870.4 921.6l-0.102-665.6c0-63.642-66.611-153.6-191.898-153.6-63.642 0-115.2 33.434-115.2 96 0 81.357 73.984 130.56 153.6 130.56 22.118 0 38.605-3.021 51.2-6.298v375.501l-358.4-65.178v-479.386h-0.102c0-63.642-66.611-153.6-191.898-153.6-63.642 0-115.2 33.434-115.2 96 0 81.357 73.984 130.56 153.6 130.56 22.118 0 38.605-3.021 51.2-6.298v598.938l563.2 102.4z" />
<glyph unicode="&#xe909;" glyph-name="calendar" d="M870.4 819.2h-51.2v-102.4h-153.6v102.4h-307.2v-102.4h-153.6v102.4h-51.2c-56.371 0-102.4-46.080-102.4-102.4v-614.4c0-56.32 46.029-102.4 102.4-102.4h716.8c56.32 0 102.4 46.080 102.4 102.4v614.4c0 56.32-46.080 102.4-102.4 102.4zM870.4 102.4h-716.8v409.6h716.8v-409.6zM332.8 921.6h-102.4v-179.2h102.4v179.2zM793.6 921.6h-102.4v-179.2h102.4v179.2z" />
<glyph unicode="&#xe90a;" glyph-name="check" d="M424.653 102.502c-22.272 0-43.366 10.394-56.883 28.314l-182.938 241.715c-23.808 31.386-17.613 76.083 13.824 99.891 31.488 23.91 76.186 17.613 99.994-13.824l120.371-158.925 302.643 485.99c20.838 33.382 64.87 43.622 98.355 22.784 33.434-20.787 43.725-64.819 22.835-98.304l-357.581-573.952c-12.39-20.019-33.843-32.512-57.344-33.587-1.126-0.102-2.15-0.102-3.277-0.102z" />
<glyph unicode="&#xe90b;" glyph-name="cross" d="M734.618 212.531c-24.013-24.013-62.925-24.013-86.886 0l-135.731 155.136-135.731-155.085c-24.013-24.013-62.925-24.013-86.886 0-24.013 24.013-24.013 62.925 0 86.886l141.21 161.28-141.261 161.382c-24.013 24.013-24.013 62.874 0 86.886s62.874 24.013 86.886 0l135.782-155.187 135.731 155.187c24.013 24.013 62.874 24.013 86.886 0s24.013-62.925 0-86.886l-141.21-161.382 141.21-161.28c24.013-24.013 24.013-62.925 0-86.938z" />
<glyph unicode="&#xe90c;" glyph-name="nav" d="M839.68 512h-655.36c-28.262 0-30.72-22.886-30.72-51.2s2.458-51.2 30.72-51.2h655.36c28.262 0 30.72 22.886 30.72 51.2s-2.458 51.2-30.72 51.2zM839.68 307.2h-655.36c-28.262 0-30.72-22.886-30.72-51.2s2.458-51.2 30.72-51.2h655.36c28.262 0 30.72 22.886 30.72 51.2s-2.458 51.2-30.72 51.2zM184.32 614.4h655.36c28.262 0 30.72 22.886 30.72 51.2s-2.458 51.2-30.72 51.2h-655.36c-28.262 0-30.72-22.886-30.72-51.2s2.458-51.2 30.72-51.2z" />
<glyph unicode="&#xe90d;" glyph-name="minus" d="M819.2 460.8c0-28.314-2.458-51.2-30.771-51.2h-552.858c-28.262 0-30.771 22.886-30.771 51.2s2.509 51.2 30.771 51.2h552.909c28.262 0 30.72-22.886 30.72-51.2z" />
<glyph unicode="&#xe90e;" glyph-name="plus" d="M819.2 460.8c0-28.314-2.458-51.2-30.771-51.2h-225.229v-225.229c0-28.262-22.886-30.771-51.2-30.771s-51.2 2.509-51.2 30.771v225.229h-225.229c-28.262 0-30.771 22.886-30.771 51.2s2.509 51.2 30.771 51.2h225.229v225.229c0 28.314 22.886 30.771 51.2 30.771s51.2-2.458 51.2-30.771v-225.229h225.229c28.314 0 30.771-22.886 30.771-51.2z" />
<glyph unicode="&#xe90f;" glyph-name="tablet" d="M819.2 972.8h-614.4c-56.32 0-102.4-46.029-102.4-102.4v-819.2c0-56.32 46.080-102.4 102.4-102.4h614.4c56.371 0 102.4 46.080 102.4 102.4v819.2c0 56.371-46.029 102.4-102.4 102.4zM512 0c-35.328 0-64 22.886-64 51.2s28.672 51.2 64 51.2c35.277 0 64-22.886 64-51.2s-28.723-51.2-64-51.2zM819.2 153.6h-614.4v716.8h614.4v-716.8z" />
<glyph unicode="&#xe910;" glyph-name="github" d="M674.816 393.779c-36.762 0-66.56-41.318-66.56-92.109 0-50.893 29.798-92.211 66.56-92.211s66.56 41.318 66.56 92.211c-0.051 50.79-29.798 92.109-66.56 92.109zM906.547 633.549c7.629 18.688 7.936 124.877-32.512 226.611 0 0-92.723-10.189-233.011-106.496-29.44 8.192-79.258 12.186-128.973 12.186-49.818 0-99.584-3.994-129.024-12.186-140.339 96.307-233.062 106.496-233.062 106.496-40.397-101.734-39.987-207.923-32.461-226.611-47.514-51.61-76.544-113.613-76.544-198.195 0-367.923 305.306-373.811 382.31-373.811 17.51 0 52.122-0.102 88.781-0.102 36.608 0 71.27 0.102 88.678 0.102 77.107 0 382.31 5.888 382.31 373.811 0 84.582-28.979 146.586-76.493 198.195zM513.434 106.752h-2.867c-193.075 0-343.501 22.989-343.501 210.688 0 45.005 15.872 86.682 53.606 121.293 62.822 57.702 169.216 27.187 289.894 27.187 0.512 0 1.024 0 1.485 0 0.512 0 0.922 0 1.382 0 120.678 0 227.123 30.515 289.997-27.187 37.632-34.611 53.504-76.288 53.504-121.293 0-187.699-150.374-210.688-343.501-210.688zM349.235 393.779c-36.762 0-66.56-41.318-66.56-92.109 0-50.893 29.798-92.211 66.56-92.211 36.813 0 66.611 41.318 66.611 92.211 0 50.79-29.798 92.109-66.611 92.109z" />
<glyph unicode="&#xe911;" glyph-name="share" d="M768 284.57c-32.41 0-61.645-12.595-83.814-32.87l-304.026 177.306c2.355 9.626 3.84 19.661 3.84 29.901s-1.485 20.224-3.84 29.85l300.8 175.565c22.835-21.35 53.35-34.56 87.040-34.56 70.605 0 128 57.395 128 128s-57.395 128-128 128-128-57.395-128-128c0-10.24 1.485-20.275 3.84-29.85l-300.8-175.565c-22.835 21.299-53.35 34.56-87.040 34.56-70.605 0-128-57.395-128-128s57.395-128 128-128c33.69 0 64.205 13.21 87.040 34.56l304.026-177.306c-2.15-8.96-3.43-18.33-3.43-27.955 0-68.71 55.654-124.365 124.365-124.365s124.365 55.706 124.365 124.365-55.654 124.365-124.365 124.365z" />
<glyph unicode="&#xe91e;" glyph-name="home" d="M1024 369.556l-512 397.426-512-397.428v162.038l512 397.426 512-397.428zM896 384v-384h-256v256h-256v-256h-256v384l384 288z" />
<glyph unicode="&#xe91f;" glyph-name="pencil" d="M864 960c88.364 0 160-71.634 160-160 0-36.020-11.91-69.258-32-96l-64-64-224 224 64 64c26.742 20.090 59.978 32 96 32zM64 224l-64-288 288 64 592 592-224 224-592-592zM715.578 596.422l-448-448-55.156 55.156 448 448 55.156-55.156z" />
<glyph unicode="&#xe920;" glyph-name="image" d="M959.884 832c0.040-0.034 0.082-0.076 0.116-0.116v-767.77c-0.034-0.040-0.076-0.082-0.116-0.116h-895.77c-0.040 0.034-0.082 0.076-0.114 0.116v767.772c0.034 0.040 0.076 0.082 0.114 0.114h895.77zM960 896h-896c-35.2 0-64-28.8-64-64v-768c0-35.2 28.8-64 64-64h896c35.2 0 64 28.8 64 64v768c0 35.2-28.8 64-64 64v0zM832 672c0-53.020-42.98-96-96-96s-96 42.98-96 96 42.98 96 96 96 96-42.98 96-96zM896 128h-768v128l224 384 256-320h64l224 192z" />
<glyph unicode="&#xe921;" glyph-name="images" horiz-adv-x="1152" d="M1088 832h-64v64c0 35.2-28.8 64-64 64h-896c-35.2 0-64-28.8-64-64v-768c0-35.2 28.8-64 64-64h64v-64c0-35.2 28.8-64 64-64h896c35.2 0 64 28.8 64 64v768c0 35.2-28.8 64-64 64zM128 768v-640h-63.886c-0.040 0.034-0.082 0.076-0.114 0.116v767.77c0.034 0.040 0.076 0.082 0.114 0.114h895.77c0.040-0.034 0.082-0.076 0.116-0.116v-63.884h-768c-35.2 0-64-28.8-64-64v0zM1088 0.116c-0.034-0.040-0.076-0.082-0.116-0.116h-895.77c-0.040 0.034-0.082 0.076-0.114 0.116v767.77c0.034 0.040 0.076 0.082 0.114 0.114h895.77c0.040-0.034 0.082-0.076 0.116-0.116v-767.768zM960 608c0-53.020-42.98-96-96-96s-96 42.98-96 96 42.98 96 96 96 96-42.98 96-96zM1024 64h-768v128l224 384 256-320h64l224 192z" />
<glyph unicode="&#xe924;" glyph-name="film" d="M0 832v-768h1024v768h-1024zM192 128h-128v128h128v-128zM192 384h-128v128h128v-128zM192 640h-128v128h128v-128zM768 128h-512v640h512v-640zM960 128h-128v128h128v-128zM960 384h-128v128h128v-128zM960 640h-128v128h128v-128zM384 640v-384l256 192z" />
<glyph unicode="&#xe928;" glyph-name="book" d="M896 832v-832h-672c-53.026 0-96 42.98-96 96s42.974 96 96 96h608v768h-640c-70.398 0-128-57.6-128-128v-768c0-70.4 57.602-128 128-128h768v896h-64zM224.056 128v0c-0.018-0.002-0.038 0-0.056 0-17.672 0-32-14.326-32-32s14.328-32 32-32c0.018 0 0.038 0.002 0.056 0.002v-0.002h607.89v64h-607.89z" />
<glyph unicode="&#xe929;" glyph-name="books" horiz-adv-x="1152" d="M224 832h-192c-17.6 0-32-14.4-32-32v-704c0-17.6 14.4-32 32-32h192c17.6 0 32 14.4 32 32v704c0 17.6-14.4 32-32 32zM192 640h-128v64h128v-64zM544 832h-192c-17.6 0-32-14.4-32-32v-704c0-17.6 14.4-32 32-32h192c17.6 0 32 14.4 32 32v704c0 17.6-14.4 32-32 32zM512 640h-128v64h128v-64zM765.088 782.52l-171.464-86.394c-15.716-7.918-22.096-27.258-14.178-42.976l287.978-571.548c7.918-15.718 27.258-22.098 42.976-14.178l171.464 86.392c15.716 7.92 22.096 27.26 14.178 42.974l-287.978 571.55c-7.92 15.718-27.26 22.1-42.976 14.18zM928 96c0-17.673-14.327-32-32-32s-32 14.327-32 32c0 17.673 14.327 32 32 32s32-14.327 32-32z" />
<glyph unicode="&#xe93a;" glyph-name="cart" d="M384 32c0-53.019-42.981-96-96-96s-96 42.981-96 96c0 53.019 42.981 96 96 96s96-42.981 96-96zM1024 32c0-53.019-42.981-96-96-96s-96 42.981-96 96c0 53.019 42.981 96 96 96s96-42.981 96-96zM1024 448v384h-768c0 35.346-28.654 64-64 64h-192v-64h128l48.074-412.054c-29.294-23.458-48.074-59.5-48.074-99.946 0-70.696 57.308-128 128-128h768v64h-768c-35.346 0-64 28.654-64 64 0 0.218 0.014 0.436 0.016 0.656l831.984 127.344z" />
<glyph unicode="&#xe942;" glyph-name="phone2" d="M704 320c-64-64-64-128-128-128s-128 64-192 128-128 128-128 192 64 64 128 128-128 256-192 256-192-192-192-192c0-128 131.5-387.5 256-512s384-256 512-256c0 0 192 128 192 192s-192 256-256 192z" />
<glyph unicode="&#xe945;" glyph-name="mail" d="M928 832h-832c-52.8 0-96-43.2-96-96v-640c0-52.8 43.2-96 96-96h832c52.8 0 96 43.2 96 96v640c0 52.8-43.2 96-96 96zM398.74 409.628l-270.74-210.892v501.642l270.74-290.75zM176.38 704h671.24l-335.62-252-335.62 252zM409.288 398.302l102.712-110.302 102.71 110.302 210.554-270.302h-626.528l210.552 270.302zM625.26 409.628l270.74 290.75v-501.642l-270.74 210.892z" />
<glyph unicode="&#xe950;" glyph-name="time" d="M512 832c-247.424 0-448-200.576-448-448s200.576-448 448-448 448 200.576 448 448-200.576 448-448 448zM512 24c-198.824 0-360 161.178-360 360 0 198.824 161.176 360 360 360 198.822 0 360-161.176 360-360 0-198.822-161.178-360-360-360zM934.784 672.826c16.042 28.052 25.216 60.542 25.216 95.174 0 106.040-85.96 192-192 192-61.818 0-116.802-29.222-151.92-74.596 131.884-27.236 245.206-105.198 318.704-212.578v0zM407.92 885.404c-35.116 45.374-90.102 74.596-151.92 74.596-106.040 0-192-85.96-192-192 0-34.632 9.174-67.122 25.216-95.174 73.5 107.38 186.822 185.342 318.704 212.578zM512 384v256h-64v-320h256v64z" />
<glyph unicode="&#xe962;" glyph-name="save" d="M896 960h-896v-1024h1024v896l-128 128zM512 832h128v-256h-128v256zM896 64h-768v768h64v-320h576v320h74.978l53.022-53.018v-714.982z" />
<glyph unicode="&#xe971;" glyph-name="user" d="M576 253.388v52.78c70.498 39.728 128 138.772 128 237.832 0 159.058 0 288-192 288s-192-128.942-192-288c0-99.060 57.502-198.104 128-237.832v-52.78c-217.102-17.748-384-124.42-384-253.388h896c0 128.968-166.898 235.64-384 253.388z" />
<glyph unicode="&#xe972;" glyph-name="users" horiz-adv-x="1152" d="M768 189.388v52.78c70.498 39.728 128 138.772 128 237.832 0 159.058 0 288-192 288s-192-128.942-192-288c0-99.060 57.502-198.104 128-237.832v-52.78c-217.102-17.748-384-124.42-384-253.388h896c0 128.968-166.898 235.64-384 253.388zM327.196 164.672c55.31 36.15 124.080 63.636 199.788 80.414-15.054 17.784-28.708 37.622-40.492 59.020-30.414 55.234-46.492 116.058-46.492 175.894 0 86.042 0 167.31 30.6 233.762 29.706 64.504 83.128 104.496 159.222 119.488-16.914 76.48-61.94 126.75-181.822 126.75-192 0-192-128.942-192-288 0-99.060 57.502-198.104 128-237.832v-52.78c-217.102-17.748-384-124.42-384-253.388h279.006c14.518 12.91 30.596 25.172 48.19 36.672z" />
<glyph unicode="&#xe973;" glyph-name="user-plus" d="M384 224c0 151.234 95.874 280.486 230.032 330.2 16.28 36.538 25.968 77.164 25.968 117.8 0 159.058 0 288-192 288s-192-128.942-192-288c0-99.060 57.502-198.104 128-237.832v-52.78c-217.102-17.748-384-124.42-384-253.388h397.306c-8.664 30.53-13.306 62.732-13.306 96zM736 512c-159.058 0-288-128.942-288-288s128.942-288 288-288c159.056 0 288 128.942 288 288s-128.942 288-288 288zM896 192h-128v-128h-64v128h-128v64h128v128h64v-128h128v-64z" />
<glyph unicode="&#xe974;" glyph-name="user-minus" d="M384 224c0 151.234 95.874 280.486 230.032 330.2 16.28 36.538 25.968 77.164 25.968 117.8 0 159.058 0 288-192 288s-192-128.942-192-288c0-99.060 57.502-198.104 128-237.832v-52.78c-217.102-17.748-384-124.42-384-253.388h397.306c-8.664 30.53-13.306 62.732-13.306 96zM736 512c-159.058 0-288-128.942-288-288s128.942-288 288-288c159.056 0 288 128.942 288 288s-128.942 288-288 288zM896 192h-320v64h320v-64z" />
<glyph unicode="&#xe994;" glyph-name="cog" d="M933.79 349.75c-53.726 93.054-21.416 212.304 72.152 266.488l-100.626 174.292c-28.75-16.854-62.176-26.518-97.846-26.518-107.536 0-194.708 87.746-194.708 195.99h-201.258c0.266-33.41-8.074-67.282-25.958-98.252-53.724-93.056-173.156-124.702-266.862-70.758l-100.624-174.292c28.97-16.472 54.050-40.588 71.886-71.478 53.638-92.908 21.512-211.92-71.708-266.224l100.626-174.292c28.65 16.696 61.916 26.254 97.4 26.254 107.196 0 194.144-87.192 194.7-194.958h201.254c-0.086 33.074 8.272 66.57 25.966 97.218 53.636 92.906 172.776 124.594 266.414 71.012l100.626 174.29c-28.78 16.466-53.692 40.498-71.434 71.228zM512 240.668c-114.508 0-207.336 92.824-207.336 207.334 0 114.508 92.826 207.334 207.336 207.334 114.508 0 207.332-92.826 207.332-207.334-0.002-114.51-92.824-207.334-207.332-207.334z" />
<glyph unicode="&#xe9a5;" glyph-name="rocket" d="M704 896l-320-320h-192l-192-256c0 0 203.416 56.652 322.066 30.084l-322.066-414.084 421.902 328.144c58.838-134.654-37.902-328.144-37.902-328.144l256 192v192l320 320 64 320-320-64z" />
<glyph unicode="&#xe9ac;" glyph-name="trash" d="M128 640v-640c0-35.2 28.8-64 64-64h576c35.2 0 64 28.8 64 64v640h-704zM320 64h-64v448h64v-448zM448 64h-64v448h64v-448zM576 64h-64v448h64v-448zM704 64h-64v448h64v-448zM848 832h-208v80c0 26.4-21.6 48-48 48h-224c-26.4 0-48-21.6-48-48v-80h-208c-26.4 0-48-21.6-48-48v-80h832v80c0 26.4-21.6 48-48 48zM576 832h-192v63.198h192v-63.198z" />
<glyph unicode="&#xe9cc;" glyph-name="flag" d="M0 960h128v-1024h-128v1024zM832 316.998c82.624 0 154.57 19.984 192 49.5v512c-37.43-29.518-109.376-49.502-192-49.502s-154.57 19.984-192 49.502v-512c37.43-29.516 109.376-49.5 192-49.5zM608 927.472c-46.906 19.94-115.52 32.528-192 32.528-96.396 0-180.334-19.984-224-49.502v-512c43.666 29.518 127.604 49.502 224 49.502 76.48 0 145.094-12.588 192-32.528v512z" />
<glyph unicode="&#xea07;" glyph-name="warning" d="M512 867.226l429.102-855.226h-858.206l429.104 855.226zM512 960c-22.070 0-44.14-14.882-60.884-44.648l-437.074-871.112c-33.486-59.532-5-108.24 63.304-108.24h869.308c68.3 0 96.792 48.708 63.3 108.24h0.002l-437.074 871.112c-16.742 29.766-38.812 44.648-60.882 44.648v0zM576 128c0-35.346-28.654-64-64-64s-64 28.654-64 64c0 35.346 28.654 64 64 64s64-28.654 64-64zM512 256c-35.346 0-64 28.654-64 64v192c0 35.346 28.654 64 64 64s64-28.654 64-64v-192c0-35.346-28.654-64-64-64z" />
<glyph unicode="&#xea3a;" glyph-name="arrow-up" d="M877.254 557.254l-320 320c-24.992 24.994-65.514 24.994-90.508 0l-320-320c-24.994-24.994-24.994-65.516 0-90.51 24.994-24.996 65.516-24.996 90.51 0l210.744 210.746v-613.49c0-35.346 28.654-64 64-64s64 28.654 64 64v613.49l210.746-210.746c12.496-12.496 28.876-18.744 45.254-18.744s32.758 6.248 45.254 18.746c24.994 24.994 24.994 65.514 0 90.508z" />
<glyph unicode="&#xea3c;" glyph-name="arrow-right" d="M621.254 82.746l320 320c24.994 24.992 24.994 65.516 0 90.51l-320 320c-24.994 24.992-65.516 24.992-90.51 0-24.994-24.994-24.994-65.516 0-90.51l210.746-210.746h-613.49c-35.346 0-64-28.654-64-64s28.654-64 64-64h613.49l-210.746-210.746c-12.496-12.496-18.744-28.876-18.744-45.254s6.248-32.758 18.744-45.254c24.994-24.994 65.516-24.994 90.51 0z" />
<glyph unicode="&#xea3e;" glyph-name="arrow-down" d="M877.254 338.746l-320-320c-24.992-24.994-65.514-24.994-90.508 0l-320 320c-24.994 24.994-24.994 65.516 0 90.51 24.994 24.996 65.516 24.996 90.51 0l210.744-210.746v613.49c0 35.346 28.654 64 64 64s64-28.654 64-64v-613.49l210.746 210.746c12.496 12.496 28.876 18.744 45.254 18.744s32.758-6.248 45.254-18.746c24.994-24.994 24.994-65.514 0-90.508z" />
<glyph unicode="&#xea40;" glyph-name="arrow-left" d="M402.746 82.746l-320 320c-24.994 24.992-24.994 65.516 0 90.51l320 320c24.994 24.992 65.516 24.992 90.51 0 24.994-24.994 24.994-65.516 0-90.51l-210.746-210.746h613.49c35.346 0 64-28.654 64-64s-28.654-64-64-64h-613.49l210.746-210.746c12.496-12.496 18.744-28.876 18.744-45.254s-6.248-32.758-18.744-45.254c-24.994-24.994-65.516-24.994-90.51 0z" />
<glyph unicode="&#xea90;" glyph-name="facebook" d="M608 768h160v192h-160c-123.514 0-224-100.486-224-224v-96h-128v-192h128v-512h192v512h160l32 192h-192v96c0 17.346 14.654 32 32 32z" />
<glyph unicode="&#xea92;" glyph-name="instagram" d="M512 867.8c136.8 0 153-0.6 206.8-3 50-2.2 77-10.6 95-17.6 23.8-9.2 41-20.4 58.8-38.2 18-18 29-35 38.4-58.8 7-18 15.4-45.2 17.6-95 2.4-54 3-70.2 3-206.8s-0.6-153-3-206.8c-2.2-50-10.6-77-17.6-95-9.2-23.8-20.4-41-38.2-58.8-18-18-35-29-58.8-38.4-18-7-45.2-15.4-95-17.6-54-2.4-70.2-3-206.8-3s-153 0.6-206.8 3c-50 2.2-77 10.6-95 17.6-23.8 9.2-41 20.4-58.8 38.2-18 18-29 35-38.4 58.8-7 18-15.4 45.2-17.6 95-2.4 54-3 70.2-3 206.8s0.6 153 3 206.8c2.2 50 10.6 77 17.6 95 9.2 23.8 20.4 41 38.2 58.8 18 18 35 29 58.8 38.4 18 7 45.2 15.4 95 17.6 53.8 2.4 70 3 206.8 3zM512 960c-139 0-156.4-0.6-211-3-54.4-2.4-91.8-11.2-124.2-23.8-33.8-13.2-62.4-30.6-90.8-59.2-28.6-28.4-46-57-59.2-90.6-12.6-32.6-21.4-69.8-23.8-124.2-2.4-54.8-3-72.2-3-211.2s0.6-156.4 3-211c2.4-54.4 11.2-91.8 23.8-124.2 13.2-33.8 30.6-62.4 59.2-90.8 28.4-28.4 57-46 90.6-59 32.6-12.6 69.8-21.4 124.2-23.8 54.6-2.4 72-3 211-3s156.4 0.6 211 3c54.4 2.4 91.8 11.2 124.2 23.8 33.6 13 62.2 30.6 90.6 59s46 57 59 90.6c12.6 32.6 21.4 69.8 23.8 124.2 2.4 54.6 3 72 3 211s-0.6 156.4-3 211c-2.4 54.4-11.2 91.8-23.8 124.2-12.6 34-30 62.6-58.6 91-28.4 28.4-57 46-90.6 59-32.6 12.6-69.8 21.4-124.2 23.8-54.8 2.6-72.2 3.2-211.2 3.2v0zM512 711c-145.2 0-263-117.8-263-263s117.8-263 263-263 263 117.8 263 263c0 145.2-117.8 263-263 263zM512 277.4c-94.2 0-170.6 76.4-170.6 170.6s76.4 170.6 170.6 170.6c94.2 0 170.6-76.4 170.6-170.6s-76.4-170.6-170.6-170.6zM846.8 721.4c0-33.91-27.49-61.4-61.4-61.4s-61.4 27.49-61.4 61.4c0 33.91 27.49 61.4 61.4 61.4s61.4-27.49 61.4-61.4z" />
<glyph unicode="&#xea96;" glyph-name="twitter" d="M1024 733.6c-37.6-16.8-78.2-28-120.6-33 43.4 26 76.6 67.2 92.4 116.2-40.6-24-85.6-41.6-133.4-51-38.4 40.8-93 66.2-153.4 66.2-116 0-210-94-210-210 0-16.4 1.8-32.4 5.4-47.8-174.6 8.8-329.4 92.4-433 219.6-18-31-28.4-67.2-28.4-105.6 0-72.8 37-137.2 93.4-174.8-34.4 1-66.8 10.6-95.2 26.2 0-0.8 0-1.8 0-2.6 0-101.8 72.4-186.8 168.6-206-17.6-4.8-36.2-7.4-55.4-7.4-13.6 0-26.6 1.4-39.6 3.8 26.8-83.4 104.4-144.2 196.2-146-72-56.4-162.4-90-261-90-17 0-33.6 1-50.2 3 93.2-59.8 203.6-94.4 322.2-94.4 386.4 0 597.8 320.2 597.8 597.8 0 9.2-0.2 18.2-0.6 27.2 41 29.4 76.6 66.4 104.8 108.6z" />
</font></defs></svg>